{
  "proxies": [
    {
      "name": "ldap",
      "source": "/phpldapadmin/",
      "destination": "http://192.168.15.44/phpldapadmin/"
    },
    {
      "name": "alfresco",
      "source": "/share",
      "destination": "http://192.168.15.44/share/"
    },
    {
      "name": "gitlab",
      "source": "/gitlab/",
      "destination": "http://192.168.15.44/gitlab/"
    }
  ]
}